<svg xmlns="http://www.w3.org/2000/svg" xmlns:xlink="http://www.w3.org/1999/xlink" id="Capa_1" x="0px" y="0px" viewBox="0 0 200 200" style="enable-background:new 0 0 200 200;" xml:space="preserve">
<style type="text/css">
	.st0{fill:#FFCA26;}
</style>
<path class="st0" d="M171.6,82.6h-0.5v-12c0-38.4-31.2-69.6-69.6-69.6S31.9,32.2,31.9,70.6v12h-2.9c-10.7,0-19,9.5-19,20.5v30.5  c-0.3,10.7,8.1,19.5,18.8,19.8c0.1,0,0.2,0,0.3,0H47c2.6-0.1,4.5-2.3,4.4-4.9c0-0.1,0-0.2,0-0.3V88.4c0-2.9-1.7-5.9-4.4-5.9h-5.4  v-12c0-33,26.8-59.8,59.8-59.8s59.8,26.8,59.8,59.8l0,0v12h-5.4c-2.7,0-4.4,2.9-4.4,5.9v59.8c-0.3,2.5,1.6,4.8,4.1,5.1  c0.1,0,0.2,0,0.3,0h5.6l-0.5,0.7c-7.3,9.7-18.8,15.4-31,15.4c-2.7-13.1-15.4-21.5-28.5-18.9c-11.2,2.3-19.3,12.1-19.3,23.5  c0.1,13.4,11,24.2,24.4,24.2c6.6-0.1,12.9-2.8,17.6-7.6c3.1-3.2,5.2-7.3,5.9-11.7c15.3,0.1,29.7-7.1,38.8-19.3l4.6-6.8  c10.5-0.7,17.1-7.3,17.1-16.8v-30.5C190.6,95,182.8,82.6,171.6,82.6z M41.6,92.3v51.3H28.9c-5.3-0.1-9.4-4.5-9.3-9.8  c0-0.1,0-0.2,0-0.3v-30.5c0-5.6,3.9-10.7,9.3-10.7H41.6z M117.1,183.9c-2.7,2.9-6.5,4.6-10.5,4.6c-7.9-0.1-14.4-6.5-14.7-14.4  c0-8,6.4-14.4,14.4-14.4c8,0,14.4,6.4,14.4,14.4c0,0,0,0,0,0C121,177.8,119.6,181.3,117.1,183.9z M180.8,136c0,6.6-6.3,7.6-9.3,7.6  h-10.3V92.3h10.3c5.4,0,9.3,7.6,9.3,13.2V136z"></path>
</svg>