<?xml version="1.0" encoding="utf-8"?>
<!-- Generator: Adobe Illustrator 24.0.0, SVG Export Plug-In . SVG Version: 6.00 Build 0)  -->
<svg version="1.1" id="Capa_1" xmlns="http://www.w3.org/2000/svg" xmlns:xlink="http://www.w3.org/1999/xlink" x="0px" y="0px"
	 viewBox="0 0 200 200" style="enable-background:new 0 0 200 200;" xml:space="preserve">
<style type="text/css">
	.st0{fill:none;stroke:#FFCA26;stroke-width:8;stroke-linecap:square;stroke-miterlimit:10;}
</style>
<g>
	<g id="_x31_4">
		<path class="st0" d="M111.6,113.9c0,10.1-15.1,18.4-33.7,18.4s-33.7-8.2-33.7-18.4S59.4,95.6,78,95.6c10.4,0,19.6,2.6,25.8,6.6"/>
		<path class="st0" d="M111.6,154.1c0,10.1-15.1,18.4-33.7,18.4s-33.7-8.2-33.7-18.4"/>
		<path class="st0" d="M111.6,116.7v57.5c0,10.1-15.1,18.4-33.7,18.4s-33.7-8.2-33.7-18.4V134c0,10.1,15.1,18.4,33.7,18.4
			s33.7-8.2,33.7-18.4"/>
		<path class="st0" d="M194,134c0,10.1-15.1,18.4-33.7,18.4c-18.6,0-33.7-8.2-33.7-18.4"/>
		<path class="st0" d="M126.7,113.9c0,10.1,15.1,18.4,33.7,18.4c18.6,0,33.7-8.2,33.7-18.4"/>
		<path class="st0" d="M194,73.8c0,10.1-15.1,18.4-33.7,18.4c-18.6,0-33.7-8.2-33.7-18.4c0-10.1,15.1-18.4,33.7-18.4
			c10.7,0,20.2,2.7,26.4,7"/>
		<path class="st0" d="M194,154.1c0,10.1-15.1,18.4-33.7,18.4c-18.6,0-33.7-8.2-33.7-18.4"/>
		<path class="st0" d="M194,78.7v95.5c0,10.1-15.1,18.4-33.7,18.4c-18.6,0-33.7-8.2-33.7-18.4V93.8c0,10.1,15.1,18.4,33.7,18.4
			c18.6,0,33.7-8.2,33.7-18.4"/>
	</g>
	<polyline class="st0" points="158.1,19.3 158.1,6.7 145.5,6.7 	"/>
	<polyline class="st0" points="7.4,92.8 70,30.2 102.5,62.6 154.7,10.3 	"/>
</g>
</svg>
